%YAML 1.1
%TAG !u! tag:unity3d.com,2011:
--- !u!74 &7400000
AnimationClip:
  m_ObjectHideFlags: 0
  m_CorrespondingSourceObject: {fileID: 0}
  m_PrefabInstance: {fileID: 0}
  m_PrefabAsset: {fileID: 0}
  m_Name: PlayerWalk2
  serializedVersion: 7
  m_Legacy: 0
  m_Compressed: 0
  m_UseHighQualityCurve: 1
  m_RotationCurves: []
  m_CompressedRotationCurves: []
  m_EulerCurves: []
  m_PositionCurves: []
  m_ScaleCurves: []
  m_FloatCurves: []
  m_PPtrCurves:
  - serializedVersion: 2
    curve:
    - time: 0
      value: {fileID: -379873062, guid: 521ec7886299c5d4089c81dc3295d072, type: 3}
    - time: 0.11666667
      value: {fileID: -30904330, guid: 521ec7886299c5d4089c81dc3295d072, type: 3}
    - time: 0.23333333
      value: {fileID: -1364237606, guid: 521ec7886299c5d4089c81dc3295d072, type: 3}
    - time: 0.35
      value: {fileID: 1743399295, guid: 521ec7886299c5d4089c81dc3295d072, type: 3}
    - time: 0.46666667
      value: {fileID: 1070934554, guid: 521ec7886299c5d4089c81dc3295d072, type: 3}
    - time: 0.5833333
      value: {fileID: 704992992, guid: 521ec7886299c5d4089c81dc3295d072, type: 3}
    - time: 0.7
      value: {fileID: -1179671044, guid: 521ec7886299c5d4089c81dc3295d072, type: 3}
    - time: 0.81666666
      value: {fileID: 474894102, guid: 521ec7886299c5d4089c81dc3295d072, type: 3}
    - time: 0.93333334
      value: {fileID: 1155118298, guid: 521ec7886299c5d4089c81dc3295d072, type: 3}
    - time: 1.05
      value: {fileID: 797710240, guid: 521ec7886299c5d4089c81dc3295d072, type: 3}
    - time: 1.1666666
      value: {fileID: -1569503449, guid: 521ec7886299c5d4089c81dc3295d072, type: 3}
    - time: 1.2833333
      value: {fileID: 851037702, guid: 521ec7886299c5d4089c81dc3295d072, type: 3}
    - time: 1.4
      value: {fileID: -1431191506, guid: 521ec7886299c5d4089c81dc3295d072, type: 3}
    - time: 1.5166667
      value: {fileID: 1537492723, guid: 521ec7886299c5d4089c81dc3295d072, type: 3}
    - time: 1.6333333
      value: {fileID: -638702961, guid: 521ec7886299c5d4089c81dc3295d072, type: 3}
    - time: 1.75
      value: {fileID: -379873062, guid: 521ec7886299c5d4089c81dc3295d072, type: 3}
    - time: 1.8666667
      value: {fileID: -30904330, guid: 521ec7886299c5d4089c81dc3295d072, type: 3}
    attribute: m_Sprite
    path: 
    classID: 212
    script: {fileID: 0}
    flags: 2
  m_SampleRate: 60
  m_WrapMode: 0
  m_Bounds:
    m_Center: {x: 0, y: 0, z: 0}
    m_Extent: {x: 0, y: 0, z: 0}
  m_ClipBindingConstant:
    genericBindings:
    - serializedVersion: 2
      path: 0
      attribute: 0
      script: {fileID: 0}
      typeID: 212
      customType: 23
      isPPtrCurve: 1
      isIntCurve: 0
      isSerializeReferenceCurve: 0
    pptrCurveMapping:
    - {fileID: -379873062, guid: 521ec7886299c5d4089c81dc3295d072, type: 3}
    - {fileID: -30904330, guid: 521ec7886299c5d4089c81dc3295d072, type: 3}
    - {fileID: -1364237606, guid: 521ec7886299c5d4089c81dc3295d072, type: 3}
    - {fileID: 1743399295, guid: 521ec7886299c5d4089c81dc3295d072, type: 3}
    - {fileID: 1070934554, guid: 521ec7886299c5d4089c81dc3295d072, type: 3}
    - {fileID: 704992992, guid: 521ec7886299c5d4089c81dc3295d072, type: 3}
    - {fileID: -1179671044, guid: 521ec7886299c5d4089c81dc3295d072, type: 3}
    - {fileID: 474894102, guid: 521ec7886299c5d4089c81dc3295d072, type: 3}
    - {fileID: 1155118298, guid: 521ec7886299c5d4089c81dc3295d072, type: 3}
    - {fileID: 797710240, guid: 521ec7886299c5d4089c81dc3295d072, type: 3}
    - {fileID: -1569503449, guid: 521ec7886299c5d4089c81dc3295d072, type: 3}
    - {fileID: 851037702, guid: 521ec7886299c5d4089c81dc3295d072, type: 3}
    - {fileID: -1431191506, guid: 521ec7886299c5d4089c81dc3295d072, type: 3}
    - {fileID: 1537492723, guid: 521ec7886299c5d4089c81dc3295d072, type: 3}
    - {fileID: -638702961, guid: 521ec7886299c5d4089c81dc3295d072, type: 3}
    - {fileID: -379873062, guid: 521ec7886299c5d4089c81dc3295d072, type: 3}
    - {fileID: -30904330, guid: 521ec7886299c5d4089c81dc3295d072, type: 3}
  m_AnimationClipSettings:
    serializedVersion: 2
    m_AdditiveReferencePoseClip: {fileID: 0}
    m_AdditiveReferencePoseTime: 0
    m_StartTime: 0
    m_StopTime: 1.8833333
    m_OrientationOffsetY: 0
    m_Level: 0
    m_CycleOffset: 0
    m_HasAdditiveReferencePose: 0
    m_LoopTime: 1
    m_LoopBlend: 0
    m_LoopBlendOrientation: 0
    m_LoopBlendPositionY: 0
    m_LoopBlendPositionXZ: 0
    m_KeepOriginalOrientation: 0
    m_KeepOriginalPositionY: 1
    m_KeepOriginalPositionXZ: 0
    m_HeightFromFeet: 0
    m_Mirror: 0
  m_EditorCurves: []
  m_EulerEditorCurves: []
  m_HasGenericRootTransform: 0
  m_HasMotionFloatCurves: 0
  m_Events: []
