%YAML 1.1
%TAG !u! tag:unity3d.com,2011:
--- !u!74 &7400000
AnimationClip:
  m_ObjectHideFlags: 0
  m_CorrespondingSourceObject: {fileID: 0}
  m_PrefabInstance: {fileID: 0}
  m_PrefabAsset: {fileID: 0}
  m_Name: PlayerWalk
  serializedVersion: 7
  m_Legacy: 0
  m_Compressed: 0
  m_UseHighQualityCurve: 1
  m_RotationCurves: []
  m_CompressedRotationCurves: []
  m_EulerCurves: []
  m_PositionCurves: []
  m_ScaleCurves: []
  m_FloatCurves: []
  m_PPtrCurves:
  - serializedVersion: 2
    curve:
    - time: 0
      value: {fileID: 21300000, guid: f7ab50a8333a04732a74c0a65031df73, type: 3}
    - time: 0.11666667
      value: {fileID: 21300000, guid: 39cd37b504ee049f6be16449707d93f7, type: 3}
    - time: 0.23333333
      value: {fileID: 21300000, guid: 5b856d64a605e44c49033a3ec62cd2bb, type: 3}
    - time: 0.35
      value: {fileID: 21300000, guid: 01f892ed67e5346c6907feef765643c8, type: 3}
    - time: 0.46666667
      value: {fileID: 21300000, guid: bd873a4c61f554f0fbc87f5cc361e995, type: 3}
    - time: 0.5833333
      value: {fileID: 21300000, guid: f0a10714c2c53479882aba57b7d34ef6, type: 3}
    - time: 0.7
      value: {fileID: 21300000, guid: b51efce512fdf4335ba884f5199d13ba, type: 3}
    - time: 0.81666666
      value: {fileID: 21300000, guid: f917c5542bb104d5780fbc45183879cb, type: 3}
    - time: 0.93333334
      value: {fileID: 21300000, guid: f35d61bf5d4374a2eb60545b792fc5d5, type: 3}
    - time: 1.05
      value: {fileID: 21300000, guid: 8721cf2af87de484e859e860a59e7373, type: 3}
    - time: 1.1666666
      value: {fileID: 21300000, guid: cfca6f36f47c94c6ebb185e89f8e9dce, type: 3}
    - time: 1.2833333
      value: {fileID: 21300000, guid: 0536bd13ab2c448cea3cd219b7f0296a, type: 3}
    - time: 1.4
      value: {fileID: 21300000, guid: 9f8f90a8000b44874b11790a55dff527, type: 3}
    - time: 1.5166667
      value: {fileID: 21300000, guid: 2c442ecc369e64cf09f52850b12d82e3, type: 3}
    - time: 1.6333333
      value: {fileID: 21300000, guid: 861b27c59e5af4b2b8061be67c789fc5, type: 3}
    - time: 1.75
      value: {fileID: 21300000, guid: 68e985422891640a18dbd1cd15f404fb, type: 3}
    - time: 1.8666667
      value: {fileID: 21300000, guid: f7ab50a8333a04732a74c0a65031df73, type: 3}
    attribute: m_Sprite
    path: 
    classID: 212
    script: {fileID: 0}
    flags: 2
  m_SampleRate: 60
  m_WrapMode: 0
  m_Bounds:
    m_Center: {x: 0, y: 0, z: 0}
    m_Extent: {x: 0, y: 0, z: 0}
  m_ClipBindingConstant:
    genericBindings:
    - serializedVersion: 2
      path: 0
      attribute: 0
      script: {fileID: 0}
      typeID: 212
      customType: 23
      isPPtrCurve: 1
      isIntCurve: 0
      isSerializeReferenceCurve: 0
    pptrCurveMapping:
    - {fileID: 21300000, guid: f7ab50a8333a04732a74c0a65031df73, type: 3}
    - {fileID: 21300000, guid: 39cd37b504ee049f6be16449707d93f7, type: 3}
    - {fileID: 21300000, guid: 5b856d64a605e44c49033a3ec62cd2bb, type: 3}
    - {fileID: 21300000, guid: 01f892ed67e5346c6907feef765643c8, type: 3}
    - {fileID: 21300000, guid: bd873a4c61f554f0fbc87f5cc361e995, type: 3}
    - {fileID: 21300000, guid: f0a10714c2c53479882aba57b7d34ef6, type: 3}
    - {fileID: 21300000, guid: b51efce512fdf4335ba884f5199d13ba, type: 3}
    - {fileID: 21300000, guid: f917c5542bb104d5780fbc45183879cb, type: 3}
    - {fileID: 21300000, guid: f35d61bf5d4374a2eb60545b792fc5d5, type: 3}
    - {fileID: 21300000, guid: 8721cf2af87de484e859e860a59e7373, type: 3}
    - {fileID: 21300000, guid: cfca6f36f47c94c6ebb185e89f8e9dce, type: 3}
    - {fileID: 21300000, guid: 0536bd13ab2c448cea3cd219b7f0296a, type: 3}
    - {fileID: 21300000, guid: 9f8f90a8000b44874b11790a55dff527, type: 3}
    - {fileID: 21300000, guid: 2c442ecc369e64cf09f52850b12d82e3, type: 3}
    - {fileID: 21300000, guid: 861b27c59e5af4b2b8061be67c789fc5, type: 3}
    - {fileID: 21300000, guid: 68e985422891640a18dbd1cd15f404fb, type: 3}
    - {fileID: 21300000, guid: f7ab50a8333a04732a74c0a65031df73, type: 3}
  m_AnimationClipSettings:
    serializedVersion: 2
    m_AdditiveReferencePoseClip: {fileID: 0}
    m_AdditiveReferencePoseTime: 0
    m_StartTime: 0
    m_StopTime: 1.8833333
    m_OrientationOffsetY: 0
    m_Level: 0
    m_CycleOffset: 0
    m_HasAdditiveReferencePose: 0
    m_LoopTime: 1
    m_LoopBlend: 0
    m_LoopBlendOrientation: 0
    m_LoopBlendPositionY: 0
    m_LoopBlendPositionXZ: 0
    m_KeepOriginalOrientation: 0
    m_KeepOriginalPositionY: 1
    m_KeepOriginalPositionXZ: 0
    m_HeightFromFeet: 0
    m_Mirror: 0
  m_EditorCurves: []
  m_EulerEditorCurves: []
  m_HasGenericRootTransform: 0
  m_HasMotionFloatCurves: 0
  m_Events: []
